{
  "name": "",
  "css_prefix_text": "icon-",
  "css_use_suffix": false,
  "hinting": true,
  "units_per_em": 1000,
  "ascent": 850,
  "glyphs": [
    {
      "uid": "bf882b30900da12fca090d9796bc3030",
      "css": "mail",
      "code": 59399,
      "src": "fontawesome"
    },
    {
      "uid": "ccc2329632396dc096bb638d4b46fb98",
      "css": "mail-alt",
      "code": 59400,
      "src": "fontawesome"
    },
    {
      "uid": "8b80d36d4ef43889db10bc1f0dc9a862",
      "css": "user",
      "code": 59396,
      "src": "fontawesome"
    },
    {
      "uid": "500fc1f109021e4b1de4deda2f7ed399",
      "css": "laptop",
      "code": 59397,
      "src": "fontawesome"
    },
    {
      "uid": "20fc52f9a88bb7bda023ef209acac095",
      "css": "graduation-cap",
      "code": 59398,
      "src": "fontawesome"
    },
    {
      "uid": "8e04c98c8f5ca0a035776e3001ad2638",
      "css": "facebook",
      "code": 59394,
      "src": "fontawesome"
    },
    {
      "uid": "b8d0c7d76e87b94882329a88e8e43d3d",
      "css": "gplus",
      "code": 59395,
      "src": "fontawesome"
    },
    {
      "uid": "627abcdb627cb1789e009c08e2678ef9",
      "css": "twitter",
      "code": 59392,
      "src": "fontawesome"
    },
    {
      "uid": "a9862b9d5197886c1ad693ecd7120b31",
      "css": "youtube",
      "code": 59393,
      "src": "fontawesome"
    }
  ]
}